{
  "page": 1,
  "total_results": 801,
  "total_pages": 41,
  "results": [
    {
      "popularity": 14.208,
      "id": 2959,
      "video": false,
      "vote_count": 607,
      "vote_average": 5.6,
      "title": "License to Wed",
      "release_date": "2007-07-04",
      "original_language": "en",
      "original_title": "License to Wed",
      "genre_ids": [35],
      "backdrop_path": "/xtnyQYrNtU5Qr1ycMtT95vv3pld.jpg",
      "adult": false,
      "overview": "",
      "poster_path": "/3fUgo5PBQqk0i7q4OoPiL5L8weW.jpg"
    },
    {
      "popularity": 2.101,
      "vote_count": 6,
      "video": false,
      "poster_path": null,
      "id": 77466,
      "adult": false,
      "backdrop_path": null,
      "original_language": "en",
      "original_title": "I Me Wed",
      "genre_ids": [35, 10749],
      "title": "I Me Wed",
      "vote_average": 4.8,
      "overview": "",
      "release_date": "2007-07-29"
    },
    {
      "popularity": 2.011,
      "id": 43965,
      "video": false,
      "vote_count": 3,
      "vote_average": 7.7,
      "title": "Easy to Wed",
      "release_date": "1946-07-25",
      "original_language": "en",
      "original_title": "Easy to Wed",
      "genre_ids": [35, 10402, 10749],
      "backdrop_path": null,
      "adult": false,
      "overview": "",
      "poster_path": "/dplCkURmrWncj8hWBrq5diiNttA.jpg"
    },
    {
      "popularity": 0.6,
      "vote_count": 0,
      "video": false,
      "poster_path": "/lWYTAE0ch7z0toZhPB1jlVvtmUf.jpg",
      "id": 637439,
      "adult": false,
      "backdrop_path": null,
      "original_language": "en",
      "original_title": "Legally Wed",
      "genre_ids": [],
      "title": "Legally Wed",
      "vote_average": 0,
      "overview": "",
      "release_date": "2017-06-11"
    },
    {
      "popularity": 0.842,
      "vote_count": 0,
      "video": false,
      "poster_path": "/j1zplnnNiTU7OeVPt3nyTE7WCOF.jpg",
      "id": 518864,
      "adult": false,
      "backdrop_path": null,
      "original_language": "en",
      "original_title": "Why Thee Wed",
      "genre_ids": [99],
      "title": "Why Thee Wed",
      "vote_average": 0,
      "overview": "",
      "release_date": "2005-05-28"
    },
    {
      "popularity": 0.6,
      "vote_count": 0,
      "video": false,
      "poster_path": null,
      "id": 655471,
      "adult": false,
      "backdrop_path": null,
      "original_language": "en",
      "original_title": "We Said We'd Come Back",
      "genre_ids": [99],
      "title": "We Said We'd Come Back",
      "vote_average": 0,
      "overview": "",
      "release_date": "1945-12-13"
    },
    {
      "popularity": 0.6,
      "genre_ids": [99],
      "video": false,
      "vote_count": 0,
      "original_language": "en",
      "adult": false,
      "title": "Yap: How Did You Know We'd Like TV?",
      "original_title": "Yap: How Did You Know We'd Like TV?",
      "backdrop_path": null,
      "id": 90962,
      "vote_average": 0,
      "overview": "",
      "poster_path": null
    },
    {
      "popularity": 1.55,
      "vote_count": 3,
      "video": false,
      "poster_path": "/ckfg0iOCWnJglWHo9Xh7aQ7Opoq.jpg",
      "id": 273194,
      "adult": false,
      "backdrop_path": null,
      "original_language": "it",
      "original_title": "Condannato a nozze",
      "genre_ids": [],
      "title": "Condannato a nozze",
      "vote_average": 5.5,
      "overview": "",
      "release_date": "1993-09-24"
    },
    {
      "popularity": 0.6,
      "id": 81519,
      "video": false,
      "vote_count": 2,
      "vote_average": 3,
      "title": "Wedding Tayo, Wedding Hindi!",
      "release_date": "2011-08-31",
      "original_language": "tl",
      "original_title": "Wedding Tayo, Wedding Hindi!",
      "genre_ids": [35],
      "backdrop_path": "/kZiZZK7zWdsD8UCcqtiEriA6qT7.jpg",
      "adult": false,
      "overview": "",
      "poster_path": "/lyhxZfgz6PBClPffuajJFaBhVHe.jpg"
    },
    {
      "popularity": 0.6,
      "id": 101723,
      "video": false,
      "vote_count": 2,
      "vote_average": 3.5,
      "title": "Prikazano Zhenit",
      "release_date": "2012-03-03",
      "original_language": "en",
      "original_title": "Prikazano Zhenit",
      "genre_ids": [35, 10749],
      "backdrop_path": null,
      "adult": false,
      "overview": "",
      "poster_path": null
    },
    {
      "popularity": 0.6,
      "id": 557402,
      "video": false,
      "vote_count": 0,
      "vote_average": 0,
      "title": "Faut-il les marier?",
      "release_date": "1932-06-01",
      "original_language": "fr",
      "original_title": "Faut-il les marier?",
      "genre_ids": [],
      "backdrop_path": null,
      "adult": false,
      "overview": "",
      "poster_path": null
    },
    {
      "popularity": 24.297,
      "id": 8273,
      "video": false,
      "vote_count": 2781,
      "vote_average": 6.1,
      "title": "American Wedding",
      "release_date": "2003-08-01",
      "original_language": "en",
      "original_title": "American Wedding",
      "genre_ids": [35, 10749],
      "backdrop_path": "/vlg1y9fogiKBIS5ptewcfRTLxTE.jpg",
      "adult": false,
      "overview": "",
      "poster_path": "/iQAHdYEQwHP5eTz2amOItX4WI5r.jpg"
    },
    {
      "popularity": 1.46,
      "id": 720794,
      "video": false,
      "vote_count": 0,
      "vote_average": 0,
      "title": "完全主観で楽しむ弥生みづきとの新婚生活",
      "release_date": "2020-07-01",
      "original_language": "ja",
      "original_title": "完全主観で楽しむ弥生みづきとの新婚生活",
      "genre_ids": [],
      "backdrop_path": null,
      "adult": true,
      "overview": "",
      "poster_path": "/p10cgvapWEJNH4P5DMHsAzyjuKn.jpg"
    },
    {
      "popularity": 11.649,
      "id": 19703,
      "video": false,
      "vote_count": 169,
      "vote_average": 7.2,
      "title": "A Wednesday!",
      "release_date": "2008-09-05",
      "original_language": "hi",
      "original_title": "A Wednesday!",
      "genre_ids": [18, 53],
      "backdrop_path": "/rktvrKGnSk1npZfjKynQBXOwomr.jpg",
      "adult": false,
      "overview": "",
      "poster_path": "/nTekKa53aqdObYEuAw6DpJSVb1f.jpg"
    },
    {
      "popularity": 9.852,
      "id": 638605,
      "video": false,
      "vote_count": 19,
      "vote_average": 5.9,
      "title": "La boda de la abuela",
      "release_date": "2019-10-11",
      "original_language": "es",
      "original_title": "La boda de la abuela",
      "genre_ids": [35],
      "backdrop_path": "/k92HApUunAj5lkriBQ6273c6bSr.jpg",
      "adult": false,
      "overview": "",
      "poster_path": "/eA0QVLSymgfTgqAtB6AdWAU5t6Q.jpg"
    },
    {
      "popularity": 8.459,
      "id": 336211,
      "video": false,
      "vote_count": 65,
      "vote_average": 7.1,
      "title": "तनु वेड्स मनु रिटर्न्स",
      "release_date": "2015-05-22",
      "original_language": "hi",
      "original_title": "तनु वेड्स मनु रिटर्न्स",
      "genre_ids": [35, 10749],
      "backdrop_path": "/6yDasl1xUjyCqlVrS9nJGESwzSP.jpg",
      "adult": false,
      "overview": "",
      "poster_path": "/sO3XD6ZDZetb2N6YDQrHLTVQrfq.jpg"
    },
    {
      "popularity": 12.827,
      "vote_count": 178,
      "video": false,
      "poster_path": "/pDqYrYciP76wfzmAqB8SLO5j6f.jpg",
      "id": 7839,
      "adult": false,
      "backdrop_path": "/fYI5ZmHQkOfFcQ2FnboD4uAJPir.jpg",
      "original_language": "en",
      "original_title": "Wedding Daze",
      "genre_ids": [35],
      "title": "Wedding Daze",
      "vote_average": 5.4,
      "overview": "",
      "release_date": "2006-09-09"
    },
    {
      "popularity": 12.442,
      "vote_count": 675,
      "video": false,
      "poster_path": "/x3o3VMEdwct54uLZmuzI4iyi2Zh.jpg",
      "id": 6961,
      "adult": false,
      "backdrop_path": "/uU9cWBVzrcCzgZvB9OJpYa3LOJ6.jpg",
      "original_language": "en",
      "original_title": "The Wedding Date",
      "genre_ids": [35, 10749],
      "title": "The Wedding Date",
      "vote_average": 6.6,
      "overview": "",
      "release_date": "2005-02-04"
    },
    {
      "popularity": 7.422,
      "id": 2125,
      "video": false,
      "vote_count": 76,
      "vote_average": 5.6,
      "title": "Wedlock",
      "release_date": "1991-05-10",
      "original_language": "en",
      "original_title": "Wedlock",
      "genre_ids": [28, 878, 53],
      "backdrop_path": "/wMM3c4xYR6GKh2tdiTSRFdkrd4z.jpg",
      "adult": false,
      "overview": "",
      "poster_path": "/zOGRa7wCOxg6LEIDY6jCikE2vZY.jpg"
    },
    {
      "popularity": 10.606,
      "id": 480,
      "video": false,
      "vote_count": 125,
      "vote_average": 6.9,
      "title": "Monsoon Wedding",
      "release_date": "2001-08-30",
      "original_language": "hi",
      "original_title": "Monsoon Wedding",
      "genre_ids": [35, 18, 10749],
      "backdrop_path": "/7L1PVyWTB9uOfeumsV6GePH9njX.jpg",
      "adult": false,
      "overview": "",
      "poster_path": "/fpi0PwfN5Hc0EUrnJ6C5t8jv8dm.jpg"
    }
  ],
  "q": "wed"
}
